{
  "openapi" : "3.0.0",
  "info" : {
    "title": "Simple Link Shortener",
    "description": "Shortens links",
    "version": "1.0.1"
  },
  "paths" : {
    "/shorten" : {
      "post" : {
        "description": "Shortens a simple link",
        "responses" : {
          "200" : {
            "description" : "The shortened key and its link.",
            "content" : {
              "application /json" : {
                "schema" : {
                  "type" : "object",
                  "properties" : {
                    "key" : { "type" :  "string" },
                    "path" : { "type" :  "string" }
                  }
                }
              }
            }
          }
        },
        "requestBody" : {
          "content" : {
            "application/x-www-form-urlencoded" : {
              "schema" : {
                "type" : "object",
                "properties" : {
                  "location" : {
                    "type" : "string",
                    "description" : "Path to be shortened"
                  }
                }
              },
              "required" : [ "location" ]
            }
          }
        }
      }
    }
  }

}